{
  "rabbit_version": "3.8.19",
  "rabbitmq_version": "3.8.19",
  "product_name": "RabbitMQ",
  "product_version": "3.8.19",
  "users": [
    {
      "name": "admin",
      "password_hash": "6/hFUniu5WHst9U143cxLOquHosrRi2YMp/0dcZhbXTe8wp6",
      "hashing_algorithm": "rabbit_password_hashing_sha256",
      "tags": "administrator",
      "limits": {}
    },
    {
      "name": "celestial_reign",
      "password_hash": "WLfe3YX1W6XFE0TLB/PJMGm5tsJPMOPSfI3neM5OPaas7flf",
      "hashing_algorithm": "rabbit_password_hashing_sha256",
      "tags": "management",
      "limits": {}
    }
  ],
  "vhosts": [
    {
      "name": "/"
    },
    {
      "name": "celestial_reign"
    }
  ],
  "permissions": [
    {
      "user": "admin",
      "vhost": "celestial_reign",
      "configure": ".*",
      "write": ".*",
      "read": ".*"
    },
    {
      "user": "celestial_reign",
      "vhost": "celestial_reign",
      "configure": "",
      "write": ".*",
      "read": ".*"
    },
    {
      "user": "admin",
      "vhost": "/",
      "configure": ".*",
      "write": ".*",
      "read": ".*"
    }
  ],
  "topic_permissions": [],
  "parameters": [],
  "global_parameters": [
    {
      "name": "cluster_name",
      "value": "rabbit@celestial_reign"
    },
    {
      "name": "internal_cluster_id",
      "value": "rabbitmq-cluster-id-ARet0lRMiBXLxiFAjtYGTg"
    }
  ],
  "policies": [],
  "queues": [
    {
      "name": "rec_ctrl.9",
      "vhost": "celestial_reign",
      "durable": true,
      "auto_delete": false,
      "arguments": {
        "x-queue-type": "classic",
        "x-single-active-consumer": true
      }
    },
    {
      "name": "rec_ctrl.4",
      "vhost": "celestial_reign",
      "durable": true,
      "auto_delete": false,
      "arguments": {
        "x-queue-type": "classic",
        "x-single-active-consumer": true
      }
    },
    {
      "name": "rec_ctrl.15",
      "vhost": "celestial_reign",
      "durable": true,
      "auto_delete": false,
      "arguments": {
        "x-queue-type": "classic",
        "x-single-active-consumer": true
      }
    },
    {
      "name": "rec_ctrl.14",
      "vhost": "celestial_reign",
      "durable": true,
      "auto_delete": false,
      "arguments": {
        "x-queue-type": "classic",
        "x-single-active-consumer": true
      }
    },
    {
      "name": "rec_ctrl.3",
      "vhost": "celestial_reign",
      "durable": true,
      "auto_delete": false,
      "arguments": {
        "x-queue-type": "classic",
        "x-single-active-consumer": true
      }
    },
    {
      "name": "rec_ctrl.1",
      "vhost": "celestial_reign",
      "durable": true,
      "auto_delete": false,
      "arguments": {
        "x-queue-type": "classic",
        "x-single-active-consumer": true
      }
    },
    {
      "name": "rec_ctrl.6",
      "vhost": "celestial_reign",
      "durable": true,
      "auto_delete": false,
      "arguments": {
        "x-queue-type": "classic",
        "x-single-active-consumer": true
      }
    },
    {
      "name": "comp_mgmt",
      "vhost": "celestial_reign",
      "durable": true,
      "auto_delete": false,
      "arguments": {
        "x-queue-type": "classic",
        "x-single-active-consumer": true
      }
    },
    {
      "name": "rec_ctrl.8",
      "vhost": "celestial_reign",
      "durable": true,
      "auto_delete": false,
      "arguments": {
        "x-queue-type": "classic",
        "x-single-active-consumer": true
      }
    },
    {
      "name": "rec_ctrl.13",
      "vhost": "celestial_reign",
      "durable": true,
      "auto_delete": false,
      "arguments": {
        "x-queue-type": "classic",
        "x-single-active-consumer": true
      }
    },
    {
      "name": "rec_ctrl.12",
      "vhost": "celestial_reign",
      "durable": true,
      "auto_delete": false,
      "arguments": {
        "x-queue-type": "classic",
        "x-single-active-consumer": true
      }
    },
    {
      "name": "rec_ctrl.2",
      "vhost": "celestial_reign",
      "durable": true,
      "auto_delete": false,
      "arguments": {
        "x-queue-type": "classic",
        "x-single-active-consumer": true
      }
    },
    {
      "name": "rec_ctrl.16",
      "vhost": "celestial_reign",
      "durable": true,
      "auto_delete": false,
      "arguments": {
        "x-queue-type": "classic",
        "x-single-active-consumer": true
      }
    },
    {
      "name": "rec_ctrl.5",
      "vhost": "celestial_reign",
      "durable": true,
      "auto_delete": false,
      "arguments": {
        "x-queue-type": "classic",
        "x-single-active-consumer": true
      }
    },
    {
      "name": "rec_ctrl.7",
      "vhost": "celestial_reign",
      "durable": true,
      "auto_delete": false,
      "arguments": {
        "x-queue-type": "classic",
        "x-single-active-consumer": true
      }
    },
    {
      "name": "rec_ctrl.11",
      "vhost": "celestial_reign",
      "durable": true,
      "auto_delete": false,
      "arguments": {
        "x-queue-type": "classic",
        "x-single-active-consumer": true
      }
    },
    {
      "name": "rec_ctrl.10",
      "vhost": "celestial_reign",
      "durable": true,
      "auto_delete": false,
      "arguments": {
        "x-queue-type": "classic",
        "x-single-active-consumer": true
      }
    }
  ],
  "exchanges": [
    {
      "name": "celestial_reign",
      "vhost": "celestial_reign",
      "type": "direct",
      "durable": true,
      "auto_delete": false,
      "internal": false,
      "arguments": {}
    }
  ],
  "bindings": [
    {
      "source": "celestial_reign",
      "vhost": "celestial_reign",
      "destination": "comp_mgmt",
      "destination_type": "queue",
      "routing_key": "comp_mgmt",
      "arguments": {}
    },
    {
      "source": "celestial_reign",
      "vhost": "celestial_reign",
      "destination": "rec_ctrl.1",
      "destination_type": "queue",
      "routing_key": "rec_ctrl.1",
      "arguments": {}
    },
    {
      "source": "celestial_reign",
      "vhost": "celestial_reign",
      "destination": "rec_ctrl.10",
      "destination_type": "queue",
      "routing_key": "rec_ctrl.10",
      "arguments": {}
    },
    {
      "source": "celestial_reign",
      "vhost": "celestial_reign",
      "destination": "rec_ctrl.11",
      "destination_type": "queue",
      "routing_key": "rec_ctrl.11",
      "arguments": {}
    },
    {
      "source": "celestial_reign",
      "vhost": "celestial_reign",
      "destination": "rec_ctrl.12",
      "destination_type": "queue",
      "routing_key": "rec_ctrl.12",
      "arguments": {}
    },
    {
      "source": "celestial_reign",
      "vhost": "celestial_reign",
      "destination": "rec_ctrl.13",
      "destination_type": "queue",
      "routing_key": "rec_ctrl.13",
      "arguments": {}
    },
    {
      "source": "celestial_reign",
      "vhost": "celestial_reign",
      "destination": "rec_ctrl.14",
      "destination_type": "queue",
      "routing_key": "rec_ctrl.14",
      "arguments": {}
    },
    {
      "source": "celestial_reign",
      "vhost": "celestial_reign",
      "destination": "rec_ctrl.15",
      "destination_type": "queue",
      "routing_key": "rec_ctrl.15",
      "arguments": {}
    },
    {
      "source": "celestial_reign",
      "vhost": "celestial_reign",
      "destination": "rec_ctrl.16",
      "destination_type": "queue",
      "routing_key": "rec_ctrl.16",
      "arguments": {}
    },
    {
      "source": "celestial_reign",
      "vhost": "celestial_reign",
      "destination": "rec_ctrl.2",
      "destination_type": "queue",
      "routing_key": "rec_ctrl.2",
      "arguments": {}
    },
    {
      "source": "celestial_reign",
      "vhost": "celestial_reign",
      "destination": "rec_ctrl.3",
      "destination_type": "queue",
      "routing_key": "rec_ctrl.3",
      "arguments": {}
    },
    {
      "source": "celestial_reign",
      "vhost": "celestial_reign",
      "destination": "rec_ctrl.4",
      "destination_type": "queue",
      "routing_key": "rec_ctrl.4",
      "arguments": {}
    },
    {
      "source": "celestial_reign",
      "vhost": "celestial_reign",
      "destination": "rec_ctrl.5",
      "destination_type": "queue",
      "routing_key": "rec_ctrl.5",
      "arguments": {}
    },
    {
      "source": "celestial_reign",
      "vhost": "celestial_reign",
      "destination": "rec_ctrl.6",
      "destination_type": "queue",
      "routing_key": "rec_ctrl.6",
      "arguments": {}
    },
    {
      "source": "celestial_reign",
      "vhost": "celestial_reign",
      "destination": "rec_ctrl.7",
      "destination_type": "queue",
      "routing_key": "rec_ctrl.7",
      "arguments": {}
    },
    {
      "source": "celestial_reign",
      "vhost": "celestial_reign",
      "destination": "rec_ctrl.8",
      "destination_type": "queue",
      "routing_key": "rec_ctrl.8",
      "arguments": {}
    },
    {
      "source": "celestial_reign",
      "vhost": "celestial_reign",
      "destination": "rec_ctrl.9",
      "destination_type": "queue",
      "routing_key": "rec_ctrl.9",
      "arguments": {}
    }
  ]
}
