digraph D {
  compound=true;
  ranksep=0.4;
  graph [bgcolor="none", fontname="DejaVu Sans, sans-serif", fontsize=11,
         size="5.5,5.5"];
  node [shape=box, fontname="DejaVu Sans, sans-serif", fontsize=11];
  edge [fillcolor=none, fontname="DejaVu Sans, sans-serif", fontsize=11];

  subgraph cluster_msw1 {
    label="Standard multiswitch";
    sub1 [label="Subscriber outputs", shape=point, style=invis];

    subgraph cluster_sys1i {
      label="System A input";
      {
        rank=same;
        vl1i [label="VL", shape=circle, width=0.05, color=transparent,
              fixedsize=true];
        vh1i [label="VH", shape=circle, width=0.05, color=transparent,
              fixedsize=true];
        hl1i [label="HL", shape=circle, width=0.05, color=transparent,
              fixedsize=true];
        hh1i [label="HH", shape=circle, width=0.05, color=transparent,
              fixedsize=true];
      }
      vl1i -> vh1i -> hl1i -> hh1i [style=invis];

      subgraph cluster_sys1o {
        label="Trunk output";
        labelloc=b;
        vl1o [label="VL", shape=circle, width=0.05, color=transparent,
              fixedsize=true];
        vh1o [label="VH", shape=circle, width=0.05, color=transparent,
              fixedsize=true];
        hl1o [label="HL", shape=circle, width=0.05, color=transparent,
              fixedsize=true];
        hh1o [label="HH", shape=circle, width=0.05, color=transparent,
              fixedsize=true];
      }
    }

    subgraph cluster_sys2i {
      label="System B input";
      {
        rank=same;
        vl2i [label="VL", shape=circle, width=0.05, color=transparent,
              fixedsize=true];
        vh2i [label="VH", shape=circle, width=0.05, color=transparent,
              fixedsize=true];
        hl2i [label="HL", shape=circle, width=0.05, color=transparent,
              fixedsize=true];
        hh2i [label="HH", shape=circle, width=0.05, color=transparent,
              fixedsize=true];
      }
      vl2i -> vh2i -> hl2i -> hh2i [style=invis];

      subgraph cluster_sys2o {
        label="Trunk output";
        labelloc=b;
        vl2o [label="VL", shape=circle, width=0.05, color=transparent,
              fixedsize=true];
        vh2o [label="VH", shape=circle, width=0.05, color=transparent,
              fixedsize=true];
        hl2o [label="HL", shape=circle, width=0.05, color=transparent,
              fixedsize=true];
        hh2o [label="HH", shape=circle, width=0.05, color=transparent,
              fixedsize=true];
      }
    }

    vl1i -> vl1o [style=invis];
    vh1i -> vh1o [style=invis];
    hl1i -> hl1o [style=invis];
    hh1i -> hh1o [style=invis];
    vl2i -> vl2o [style=invis];
    vh2i -> vh2o [style=invis];
    hl2i -> hl2o [style=invis];
    hh2i -> hh2o [style=invis];
  }

  subgraph cluster_msw1c {
    label="Standard multiswitch\ncascade element";
    sub2 [label="Subscriber outputs", shape=point, style=invis];

    subgraph cluster_sys1ic {
      label="System A input";
      vl1ic [label="VL", shape=circle, width=0.05, color=transparent,
             fixedsize=true];
      vh1ic [label="VH", shape=circle, width=0.05, color=transparent,
             fixedsize=true];
      hl1ic [label="HL", shape=circle, width=0.05, color=transparent,
             fixedsize=true];
      hh1ic [label="HH", shape=circle, width=0.05, color=transparent,
             fixedsize=true];

      subgraph cluster_sys1oc {
        label="Trunk output";
        labelloc=b;
        vl1oc [label="VL", shape=circle, width=0.05, color=transparent,
               fixedsize=true];
        vh1oc [label="VH", shape=circle, width=0.05, color=transparent,
               fixedsize=true];
        hl1oc [label="HL", shape=circle, width=0.05, color=transparent,
               fixedsize=true];
        hh1oc [label="HH", shape=circle, width=0.05, color=transparent,
               fixedsize=true];
      }
    }

    subgraph cluster_sys2ic {
      label="System B input";
      vl2ic [label="VL", shape=circle, width=0.05, color=transparent,
             fixedsize=true];
      vh2ic [label="VH", shape=circle, width=0.05, color=transparent,
             fixedsize=true];
      hl2ic [label="HL", shape=circle, width=0.05, color=transparent,
             fixedsize=true];
      hh2ic [label="HH", shape=circle, width=0.05, color=transparent,
             fixedsize=true];

      subgraph cluster_sys2oc {
        label="Trunk output";
        labelloc=b;
        vl2oc [label="VL", shape=point];
        vh2oc [label="VH", shape=point];
        hl2oc [label="HL", shape=point];
        hh2oc [label="HH", shape=point];
      }
    }

    vl1ic -> vl1oc [style=invis];
    vh1ic -> vh1oc [style=invis];
    hl1ic -> hl1oc [style=invis];
    hh1ic -> hh1oc [style=invis];

    vl2ic -> vl2oc [style=invis];
    vh2ic -> vh2oc [style=invis];
    hl2ic -> hl2oc [style=invis];
    hh2ic -> hh2oc [style=invis];
  }

  subgraph cluster_msw1d {
    label="SCR multiswitch";
    sub3 [label="Subscriber outputs", shape=point, style=invis];

    subgraph cluster_sys1id {
      label="System input";

      vl1id [label="VL", shape=circle, width=0.05, color=transparent,
            fixedsize=true];
      vh1id [label="VH", shape=circle, width=0.05, color=transparent,
            fixedsize=true];
      hl1id [label="HL", shape=circle, width=0.05, color=transparent,
            fixedsize=true];
      hh1id [label="HH", shape=circle, width=0.05, color=transparent,
            fixedsize=true];

      subgraph cluster_sys1od {
        label="Trunk output";
        labelloc=b;
        vl1od [label="VL", shape=point];
        vh1od [label="VH", shape=point];
        hl1od [label="HL", shape=point];
        hh1od [label="HH", shape=point];
      }
    }

  vl1id -> vl1od [style=invis];
  vh1id -> vh1od [style=invis];
  hl1id -> hl1od [style=invis];
  hh1id -> hh1od [style=invis];

  }

  dsh1 [label="Satellite\ndish\nAstra 2\n(28.2°E)", shape=circle]
  dsh2 [label="Satellite\ndish", shape=circle]

  rcv1 [label="Sky Q", shape=plaintext];
  rcv2 [label="Other\ntuners", shape=plaintext];
  rcv3 [label="SkyHD/Sky+HD", shape=plaintext];

  dsh1 -> vl1i;
  dsh1 -> vh1i;
  dsh1 -> hl1i;
  dsh1 -> hh1i;

  sub1:e -> rcv2[ltail=cluster_msw1, constraint=false];
  sub1:e -> rcv3[ltail=cluster_msw1];

  sub2:e -> rcv2[ltail=cluster_msw1c];
  sub2:e -> rcv3[ltail=cluster_msw1c];

  sub3:e -> rcv1[ltail=cluster_msw1d];

  dsh2 -> vl2i;
  dsh2 -> vh2i;
  dsh2 -> hl2i;
  dsh2 -> hh2i;

  vl1o -> vl1ic;
  vh1o -> vh1ic;
  hl1o -> hl1ic;
  hh1o -> hh1ic;

  vl2o -> vl2ic;
  vh2o -> vh2ic;
  hl2o -> hl2ic;
  hh2o -> hh2ic;

  vl1oc -> vl1id;
  vh1oc -> vh1id;
  hl1oc -> hl1id;
  hh1oc -> hh1id;

  // Input order
  vl1r [shape=point,style=invis];
  vh1r [shape=point,style=invis];
  hl1r [shape=point,style=invis];
  hh1r [shape=point,style=invis];

  vl2r [shape=point,style=invis];
  vh2r [shape=point,style=invis];
  hl2r [shape=point,style=invis];
  hh2r [shape=point,style=invis];

  vl1od -> vl1r [style=invis];
  vh1od -> vh1r [style=invis];
  hl1od -> hl1r [style=invis];
  hh1od -> hh1r [style=invis];

  vl2oc -> vl2r [style=invis];
  vh2oc -> vh2r [style=invis];
  hl2oc -> hl2r [style=invis];
  hh2oc -> hh2r [style=invis];

  {
    rank=same;
    vl1r-> vh1r -> hl1r -> hh1r [style=invis];
    vl2r-> vh2r -> hl2r -> hh2r [style=invis];
  }

}
